108491 619704 470
839916 882011 432
660272 837412 504
530461 184623 470
403764 762224 509
495311 642440 509
892299 743002 525
78113 451363 449
251686 741117 509
726902 966649 525
105710 542162 470
816372 814540 357
849167 635321 525
171136 978360 525
235717 246923 368
528491 33237 470
102583 337071 443
594420 745517 509
82683 965449 525
28897 664576 509
549627 489590 470
891269 640362 525
185241 161471 365
602069 781008 509
310980 581353 470
271283 811624 509
186210 155146 383
685876 317064 509
653556 320731 509
799742 831035 450
137100 560837 470
123125 116882 336
620470 688165 509
86645 131935 354
428265 335904 449
412405 730271 509
93185 593233 470
291385 679103 509
117634 262510 443
958438 439519 525
985953 438936 525
425985 223628 449
189791 623800 470
984809 346615 525
797182 655579 504
59941 39622 340
290579 233914 407
844778 432804 525
610991 9424 470
684915 774828 504
836223 228513 509
88106 63471 351
472818 956129 525
534492 902865 525
680409 866594 525
594156 930754 525
169163 209766 373
798152 377832 509
254294 149217 443
509158 564301 470
982544 532364 525
877742 783157 525
908777 740302 525
383037 775445 509
475465 243707 449
882631 712771 525
224767 730973 509
843971 362288 525
823320 826595 375
151855 925803 525
421487 311207 449
925998 395807 525
467463 857365 525
374858 440439 449
879725 70164 525
189477 116635 383
504008 841752 525
725311 220905 509
971056 678759 525
434052 814147 509
655748 599405 509
201101 738107 509
409913 58129 443
655172 58888 509
772487 424325 509
48352 411444 449
174656 321032 443
678913 541831 509
842410 987884 507
125778 538130 470
155091 779723 509
628579 628262 235
305169 31822 443
374387 121378 443
351738 641085 509
926369 986102 507
221056 262280 443
392862 249882 441
991619 694325 525
417552 448 449
840339 44402 525
938656 686227 525
285115 511936 470
610452 373034 470
560881 832813 509
327177 285740 389
688252 836884 504
365889 821300 509
2569 654638 509
308951 129623 443
964954 838378 507
324646 276252 389
166095 995483 525
5465 259738 443
385605 939477 525
922166 881550 476
344883 71210 443
820360 190764 509
437573 472960 444
466059 58606 449
789057 35295 509
188779 811917 509
873568 835301 525
19651 423833 449
391038 380330 436
124861 789499 509
480851 513854 470
212062 871976 525
669905 199975 509
420436 108252 449
703405 316119 509
247913 294122 407
110771 551630 470
106526 895230 525
56083 996992 525
146546 417217 449
812456 218121 509
971916 471222 525
994846 436138 525
211450 506415 449
543730 944468 525
703188 492478 509
569135 679694 509
124721 273385 443
182404 190185 360
693309 238174 509
928088 371524 525
977444 144241 525
997817 619491 525
388092 29747 443
32290 186492 383
157850 298511 443
157077 468563 449
971935 142601 525
170361 674412 509
788409 745231 468
688788 220811 509
232316 696639 509
586843 427367 470
940164 76233 525
433005 397071 449
208588 541747 470
975515 36028 525
550182 889176 525
441768 524968 470
224640 253080 443
592731 676048 509
418168 460742 418
672310 565648 509
412846 414887 374
432490 30291 449
577002 137625 470
591640 242179 470
297232 194691 443
767100 554146 509
191572 741555 509
589965 787755 509
777106 303305 509
706393 859270 525
571225 252750 470
805813 414394 509
790184 459303 509
324045 82858 443
917561 957737 507
937058 19696 525
925560 645172 525
5873 953694 525
811984 891360 525
398595 745275 509
404377 900800 525
61464 865425 525
815013 729810 468
469466 557471 470
158876 621744 470
421328 516503 470
578618 862421 525
933452 675388 525
812042 619865 509
406803 390540 405
558362 151629 470
847557 529102 525
386674 437046 449
567625 699363 509
816690 199879 509
455701 118438 449
37203 272632 443
621119 498325 470
516006 557271 452
468611 58809 449
914563 95504 525
343142 252209 407
997323 904483 507
233174 529808 470
262604 653175 509
406536 160350 443
114019 298582 443
798354 861242 525
492269 563057 470
399834 647365 509
638716 404911 509
99241 58206 351
202095 705903 509
28806 69973 340
190381 219696 386
426973 881658 525
778808 538440 509
497774 874443 525
400309 245064 441
812349 570024 509
524003 545559 408
712926 863468 525
677863 381120 509
984920 210296 525
891803 25029 525
849843 505152 525
899737 942736 507
819970 760173 468
474393 610190 470
225350 886904 525
689889 165742 509
199880 338924 443
416088 917428 525
271280 309368 389
311138 106964 443
252414 210333 443
474608 245620 449
951581 386362 525
741495 256269 509
12451 685524 509
462099 314471 449
610254 651893 509
887455 939777 507
960042 352866 525
279495 496454 449
13895 884063 525
782178 52676 509
357973 446150 449
303362 501992 449
898056 660586 525
940353 577077 525
828455 205511 509
891788 697654 525
775196 303857 509
328131 127950 443
730007 616681 509
455686 147268 449
604615 747252 509
252347 314488 407
62071 843765 525
783998 696269 504
405420 437504 449
99759 81350 333
71177 372972 443
919288 604365 525
685919 138110 509
278670 302691 389
533286 84263 470
542172 264663 470
889143 89114 525
663369 470401 509
272252 733348 509
425926 271009 449
288521 667941 509
464561 796753 509
103671 335742 443
877851 979067 507
963891 732123 525
55797 910381 525
50860 66032 340
873173 925639 476
515842 58656 470
432998 858547 525
67880 307935 443
716550 898662 525
187174 294270 443
743106 987038 525
83637 123729 354
538260 793234 509
910306 443749 525
304519 744675 509
