703287 27134 509
395241 588491 470
648995 968474 525
875374 472691 525
257204 813234 509
724779 469939 509
286440 288835 389
885755 534939 525
150663 418851 449
945953 634353 525
918017 232610 525
218163 686611 509
26878 502432 449
165476 370663 443
512271 74583 470
620082 163438 470
279024 12938 443
300756 887527 525
739046 382861 509
151867 474060 449
419524 50374 449
904044 268031 525
718491 684602 504
825399 772279 468
722504 896962 525
848230 88354 525
791138 980317 525
223422 693546 509
343856 974592 525
637746 821033 504
648662 368757 509
963724 704393 525
369139 794372 509
857441 680301 525
584064 807676 509
50693 72551 340
737870 38327 509
377711 540102 470
793918 921548 525
737058 803771 468
289957 711643 509
651300 98627 509
737387 933727 525
815528 808169 406
543978 706846 509
125789 302886 443
253640 194749 443
191959 510759 449
778337 235015 509
817826 329770 509
14003 126545 354
20664 872384 525
935737 641137 525
850724 16354 525
737891 350989 509
935694 912808 476
178385 129460 383
965937 104997 525
757094 576550 509
890572 45024 525
867367 506604 525
663778 456344 509
107457 472475 449
614848 406886 470
844214 954856 507
548467 184903 470
514940 595068 452
743941 619902 509
82666 818985 509
454899 788684 509
185521 334677 443
310061 358959 441
634284 311438 509
340670 863467 525
512301 969549 525
402963 402943 237
129666 321754 443
391700 130698 443
318145 331530 384
796223 429233 509
932754 214602 525
397655 635020 509
376995 647482 509
105618 136053 354
344406 38045 443
129828 713602 509
261293 861349 525
140312 34500 354
100033 521770 470
573473 111051 470
679919 233983 509
754077 49653 509
222945 793497 509
669423 318963 509
496678 686964 509
40521 545879 470
589827 251232 470
880006 834763 525
855377 482369 525
668517 624138 509
918594 854226 476
241702 290853 407
797698 394918 509
486886 903816 525
426587 373457 449
806629 334534 509
100220 877606 525
993472 930393 507
572300 405494 470
988133 859282 507
903357 842614 445
821321 491172 509
96913 116150 354
316915 412432 449
842192 521835 525
96513 593432 470
452735 699138 509
419933 882453 525
778299 945595 525
385254 975475 525
833484 181016 509
272969 499531 449
737203 900349 525
267957 902527 525
291424 825845 509
745483 422434 509
833475 509674 509
829415 778661 468
865915 905820 445
233420 833055 509
562495 943836 525
980297 850021 507
553749 244069 470
217447 147656 386
311893 265601 407
983948 566190 525
72454 881113 525
551564 812903 509
820942 438096 509
706800 552861 509
915707 216030 525
865485 80031 525
622356 525474 452
878290 912954 476
523509 319037 470
197516 211818 373
370820 655599 509
529297 32923 470
82926 571029 470
365157 164887 443
656339 114180 509
839194 178399 525
10359 70192 340
768231 843837 525
666217 580999 509
122080 500141 449
405531 109769 443
40569 980267 525
965569 96833 525
647931 454722 509
344859 563604 470
87412 4072 351
842216 836234 525
310635 81087 443
920646 426411 525
266661 87488 443
187863 327077 443
338501 958220 525
399264 345901 441
985394 496274 525
665546 57877 509
20462 28772 308
272700 390645 441
731706 971420 525
972434 900400 507
886852 146315 525
304808 762440 509
989737 210474 525
732832 559284 509
419938 347815 449
494534 954727 525
173402 227066 386
124610 464417 449
278725 61632 443
789958 196299 509
697032 471558 509
409920 352793 436
126891 931187 525
714529 91637 509
529787 363292 470
964392 955773 414
277995 817518 509
926252 594247 525
849847 62595 525
97369 300937 443
726402 23993 509
619844 724168 509
127728 698668 509
277402 715808 509
403542 954998 525
